{
    "editor": [
        {
            "icon": "",
            "key": "settings",
            "header": "Settings",
            "disabled": false,
            "fields": [
                {
                    "key": "success_header",
                    "header": "success_header",
                    "type": "text"
                },
                {
                    "key": "success_text",
                    "header": "success_text",
                    "type": "text"
                },
                {
                    "key": "success_buttonText",
                    "header": "success_buttonText",
                    "type": "text"
                },
                {
                    "key": "success_image",
                    "header": "success_image",
                    "type": "image"
                },
                {
                    "key": "bg_image",
                    "header": "bg_image",
                    "type": "image"
                },
                {
                    "key": "headline",
                    "header": "Header",
                    "type": "text"
                },
                {
                    "key": "mob_headline",
                    "header": "Mobile Header",
                    "type": "text"
                },
                {
                    "key": "enough_funds",
                    "header": "enough_funds",
                    "type": "text"
                }
            ]
        }
    ],
    "config": {
        "settings": {
            "success_header": "Tip has been sent",
            "success_text": "Thank you for supporting my Free Online Tutorial Classes",
            "success_buttonText": "TIP AGAIN",
            "success_image": "./../assets/success.png",
            "bg_image": "./../assets/bg2.png",
            "headline": "Tip Jar for Free Online Tutorial Classes",
            "enough_funds": "Not enough funds in your account to process tip",
            "mob_headline":"Tip Jar for Free Online Classes"
        }
    }
}